Mode	X(mm)	Y(mm)	Z(mm)	Pmod	Time(s)
1	0	0	0	0	1.00E-04

0	5	0	0	1	1

0	5	1	0	1	1

1	4.5	1	0	1	5.00E-04

1	4	1	0	1	5.00E-04

1	3.5	1	0	1	5.00E-04

1	3	1	0	1	5.00E-04

1	2.5	1	0	1	5.00E-04

1	2	1	0	1	5.00E-04

1	1.5	1	0	1	5.00E-04

1	1	1	0	1	5.00E-04

1	0.5	1	0	1	5.00E-04

1	0	0	0	0	1.00E-04


